<svg version="1.1" xmlns="http://www.w3.org/2000/svg" viewBox="160 95 150 280" fill="none">
	<path d="M209.72 302.22L302.22 264.57L236.9 105.63L171.57 264.57L264.06 302.22"></path>
	<path d="M209.72 171.57L302.22 209.43L236.9 366.9L171.57 209.43L264.06 171.57"></path>
</svg>